%YAML 1.1
%TAG !u! tag:unity3d.com,2011:
--- !u!114 &11400000
MonoBehaviour:
  m_ObjectHideFlags: 0
  m_CorrespondingSourceObject: {fileID: 0}
  m_PrefabInstance: {fileID: 0}
  m_PrefabAsset: {fileID: 0}
  m_GameObject: {fileID: 0}
  m_Enabled: 1
  m_EditorHideFlags: 0
  m_Script: {fileID: 11500000, guid: 6d9bd8196782e8046aa1c74d1734fc9c, type: 3}
  m_Name: Wave 3
  m_EditorClassIdentifier: 
  enemyPrefab: {fileID: 5385740245567812695, guid: 56a886e9e477c9943898f1063095d95f,
    type: 3}
  pathPrefab: {fileID: 1081016593207868392, guid: 9782386f427e51942978f99446cf875e,
    type: 3}
  timeBetweenSpawns: 0.5
  spawnRandomFactor: 0.3
  numberOfEnemies: 5
  moveSpeed: 2
