%YAML 1.1
%TAG !u! tag:unity3d.com,2011:
--- !u!29 &1
OcclusionCullingSettings:
  m_ObjectHideFlags: 0
  serializedVersion: 2
  m_OcclusionBakeSettings:
    smallestOccluder: 5
    smallestHole: 0.25
    backfaceThreshold: 100
  m_SceneGUID: 00000000000000000000000000000000
  m_OcclusionCullingData: {fileID: 0}
--- !u!104 &2
RenderSettings:
  m_ObjectHideFlags: 0
  serializedVersion: 9
  m_Fog: 0
  m_FogColor: {r: 0.5, g: 0.5, b: 0.5, a: 1}
  m_FogMode: 3
  m_FogDensity: 0.01
  m_LinearFogStart: 0
  m_LinearFogEnd: 300
  m_AmbientSkyColor: {r: 0.212, g: 0.227, b: 0.259, a: 1}
  m_AmbientEquatorColor: {r: 0.114, g: 0.125, b: 0.133, a: 1}
  m_AmbientGroundColor: {r: 0.047, g: 0.043, b: 0.035, a: 1}
  m_AmbientIntensity: 1
  m_AmbientMode: 3
  m_SubtractiveShadowColor: {r: 0.42, g: 0.478, b: 0.627, a: 1}
  m_SkyboxMaterial: {fileID: 0}
  m_HaloStrength: 0.5
  m_FlareStrength: 1
  m_FlareFadeSpeed: 3
  m_HaloTexture: {fileID: 0}
  m_SpotCookie: {fileID: 10001, guid: 0000000000000000e000000000000000, type: 0}
  m_DefaultReflectionMode: 0
  m_DefaultReflectionResolution: 128
  m_ReflectionBounces: 1
  m_ReflectionIntensity: 1
  m_CustomReflection: {fileID: 0}
  m_Sun: {fileID: 0}
  m_IndirectSpecularColor: {r: 0, g: 0, b: 0, a: 1}
  m_UseRadianceAmbientProbe: 0
--- !u!157 &3
LightmapSettings:
  m_ObjectHideFlags: 0
  serializedVersion: 11
  m_GIWorkflowMode: 1
  m_GISettings:
    serializedVersion: 2
    m_BounceScale: 1
    m_IndirectOutputScale: 1
    m_AlbedoBoost: 1
    m_EnvironmentLightingMode: 0
    m_EnableBakedLightmaps: 0
    m_EnableRealtimeLightmaps: 0
  m_LightmapEditorSettings:
    serializedVersion: 10
    m_Resolution: 2
    m_BakeResolution: 40
    m_AtlasSize: 1024
    m_AO: 0
    m_AOMaxDistance: 1
    m_CompAOExponent: 1
    m_CompAOExponentDirect: 0
    m_Padding: 2
    m_LightmapParameters: {fileID: 0}
    m_LightmapsBakeMode: 1
    m_TextureCompression: 1
    m_FinalGather: 0
    m_FinalGatherFiltering: 1
    m_FinalGatherRayCount: 256
    m_ReflectionCompression: 2
    m_MixedBakeMode: 2
    m_BakeBackend: 1
    m_PVRSampling: 1
    m_PVRDirectSampleCount: 32
    m_PVRSampleCount: 500
    m_PVRBounces: 2
    m_PVRFilterTypeDirect: 0
    m_PVRFilterTypeIndirect: 0
    m_PVRFilterTypeAO: 0
    m_PVRFilteringMode: 1
    m_PVRCulling: 1
    m_PVRFilteringGaussRadiusDirect: 1
    m_PVRFilteringGaussRadiusIndirect: 5
    m_PVRFilteringGaussRadiusAO: 2
    m_PVRFilteringAtrousPositionSigmaDirect: 0.5
    m_PVRFilteringAtrousPositionSigmaIndirect: 2
    m_PVRFilteringAtrousPositionSigmaAO: 1
    m_ShowResolutionOverlay: 1
  m_LightingDataAsset: {fileID: 0}
  m_UseShadowmask: 1
--- !u!196 &4
NavMeshSettings:
  serializedVersion: 2
  m_ObjectHideFlags: 0
  m_BuildSettings:
    serializedVersion: 2
    agentTypeID: 0
    agentRadius: 0.5
    agentHeight: 2
    agentSlope: 45
    agentClimb: 0.4
    ledgeDropHeight: 0
    maxJumpAcrossDistance: 0
    minRegionArea: 2
    manualCellSize: 0
    cellSize: 0.16666667
    manualTileSize: 0
    tileSize: 256
    accuratePlacement: 0
    debug:
      m_Flags: 0
  m_NavMeshData: {fileID: 0}
--- !u!1001 &154960125
PrefabInstance:
  m_ObjectHideFlags: 0
  serializedVersion: 2
  m_Modification:
    m_TransformParent: {fileID: 0}
    m_Modifications:
    - target: {fileID: 3036969664973176563, guid: 8d28d16693b0f3944b892011ad2987aa,
        type: 3}
      propertyPath: m_AnchorMin.y
      value: 0.5
      objectReference: {fileID: 0}
    - target: {fileID: 3036969664973176563, guid: 8d28d16693b0f3944b892011ad2987aa,
        type: 3}
      propertyPath: m_AnchorMax.y
      value: 0.5
      objectReference: {fileID: 0}
    - target: {fileID: 3036969664973176563, guid: 8d28d16693b0f3944b892011ad2987aa,
        type: 3}
      propertyPath: m_AnchoredPosition.y
      value: 250
      objectReference: {fileID: 0}
    - target: {fileID: 3036969664973176563, guid: 8d28d16693b0f3944b892011ad2987aa,
        type: 3}
      propertyPath: m_Pivot.y
      value: 0.5
      objectReference: {fileID: 0}
    - target: {fileID: 3036969664973176563, guid: 8d28d16693b0f3944b892011ad2987aa,
        type: 3}
      propertyPath: m_SizeDelta.x
      value: 300
      objectReference: {fileID: 0}
    - target: {fileID: 3036969664973176563, guid: 8d28d16693b0f3944b892011ad2987aa,
        type: 3}
      propertyPath: m_SizeDelta.y
      value: 100
      objectReference: {fileID: 0}
    - target: {fileID: 3036969664973176563, guid: 8d28d16693b0f3944b892011ad2987aa,
        type: 3}
      propertyPath: m_AnchorMin.x
      value: 0.5
      objectReference: {fileID: 0}
    - target: {fileID: 3036969664973176563, guid: 8d28d16693b0f3944b892011ad2987aa,
        type: 3}
      propertyPath: m_AnchorMax.x
      value: 0.5
      objectReference: {fileID: 0}
    - target: {fileID: 3036969664973176563, guid: 8d28d16693b0f3944b892011ad2987aa,
        type: 3}
      propertyPath: m_AnchoredPosition.x
      value: 0
      objectReference: {fileID: 0}
    - target: {fileID: 3036969664973176563, guid: 8d28d16693b0f3944b892011ad2987aa,
        type: 3}
      propertyPath: m_Pivot.x
      value: 0.5
      objectReference: {fileID: 0}
    - target: {fileID: 3036969665467621985, guid: 8d28d16693b0f3944b892011ad2987aa,
        type: 3}
      propertyPath: m_AnchoredPosition.x
      value: 0
      objectReference: {fileID: 0}
    - target: {fileID: 3036969665467621985, guid: 8d28d16693b0f3944b892011ad2987aa,
        type: 3}
      propertyPath: m_SizeDelta.x
      value: 300
      objectReference: {fileID: 0}
    - target: {fileID: 3036969665467621985, guid: 8d28d16693b0f3944b892011ad2987aa,
        type: 3}
      propertyPath: m_AnchoredPosition.y
      value: 461
      objectReference: {fileID: 0}
    - target: {fileID: 3036969665467621985, guid: 8d28d16693b0f3944b892011ad2987aa,
        type: 3}
      propertyPath: m_SizeDelta.y
      value: 100
      objectReference: {fileID: 0}
    - target: {fileID: 3036969665467621985, guid: 8d28d16693b0f3944b892011ad2987aa,
        type: 3}
      propertyPath: m_AnchorMin.y
      value: 0.5
      objectReference: {fileID: 0}
    - target: {fileID: 3036969665467621985, guid: 8d28d16693b0f3944b892011ad2987aa,
        type: 3}
      propertyPath: m_AnchorMax.y
      value: 0.5
      objectReference: {fileID: 0}
    - target: {fileID: 3036969665467621985, guid: 8d28d16693b0f3944b892011ad2987aa,
        type: 3}
      propertyPath: m_Pivot.y
      value: 1
      objectReference: {fileID: 0}
    - target: {fileID: 3036969665467621985, guid: 8d28d16693b0f3944b892011ad2987aa,
        type: 3}
      propertyPath: m_AnchorMin.x
      value: 0.5
      objectReference: {fileID: 0}
    - target: {fileID: 3036969665467621985, guid: 8d28d16693b0f3944b892011ad2987aa,
        type: 3}
      propertyPath: m_AnchorMax.x
      value: 0.5
      objectReference: {fileID: 0}
    - target: {fileID: 3542691076355529120, guid: 8d28d16693b0f3944b892011ad2987aa,
        type: 3}
      propertyPath: m_ReferenceResolution.x
      value: 640
      objectReference: {fileID: 0}
    - target: {fileID: 3542691076355529120, guid: 8d28d16693b0f3944b892011ad2987aa,
        type: 3}
      propertyPath: m_ReferenceResolution.y
      value: 960
      objectReference: {fileID: 0}
    - target: {fileID: 3542691076355529120, guid: 8d28d16693b0f3944b892011ad2987aa,
        type: 3}
      propertyPath: m_MatchWidthOrHeight
      value: 0
      objectReference: {fileID: 0}
    - target: {fileID: 3542691076355529122, guid: 8d28d16693b0f3944b892011ad2987aa,
        type: 3}
      propertyPath: m_Name
      value: Start Menu Canvas
      objectReference: {fileID: 0}
    - target: {fileID: 3542691076355529126, guid: 8d28d16693b0f3944b892011ad2987aa,
        type: 3}
      propertyPath: m_LocalPosition.x
      value: 0
      objectReference: {fileID: 0}
    - target: {fileID: 3542691076355529126, guid: 8d28d16693b0f3944b892011ad2987aa,
        type: 3}
      propertyPath: m_LocalPosition.y
      value: 0
      objectReference: {fileID: 0}
    - target: {fileID: 3542691076355529126, guid: 8d28d16693b0f3944b892011ad2987aa,
        type: 3}
      propertyPath: m_LocalPosition.z
      value: 0
      objectReference: {fileID: 0}
    - target: {fileID: 3542691076355529126, guid: 8d28d16693b0f3944b892011ad2987aa,
        type: 3}
      propertyPath: m_LocalRotation.x
      value: 0
      objectReference: {fileID: 0}
    - target: {fileID: 3542691076355529126, guid: 8d28d16693b0f3944b892011ad2987aa,
        type: 3}
      propertyPath: m_LocalRotation.y
      value: 0
      objectReference: {fileID: 0}
    - target: {fileID: 3542691076355529126, guid: 8d28d16693b0f3944b892011ad2987aa,
        type: 3}
      propertyPath: m_LocalRotation.z
      value: 0
      objectReference: {fileID: 0}
    - target: {fileID: 3542691076355529126, guid: 8d28d16693b0f3944b892011ad2987aa,
        type: 3}
      propertyPath: m_LocalRotation.w
      value: 1
      objectReference: {fileID: 0}
    - target: {fileID: 3542691076355529126, guid: 8d28d16693b0f3944b892011ad2987aa,
        type: 3}
      propertyPath: m_RootOrder
      value: 3
      objectReference: {fileID: 0}
    - target: {fileID: 3542691076355529126, guid: 8d28d16693b0f3944b892011ad2987aa,
        type: 3}
      propertyPath: m_LocalEulerAnglesHint.x
      value: 0
      objectReference: {fileID: 0}
    - target: {fileID: 3542691076355529126, guid: 8d28d16693b0f3944b892011ad2987aa,
        type: 3}
      propertyPath: m_LocalEulerAnglesHint.y
      value: 0
      objectReference: {fileID: 0}
    - target: {fileID: 3542691076355529126, guid: 8d28d16693b0f3944b892011ad2987aa,
        type: 3}
      propertyPath: m_LocalEulerAnglesHint.z
      value: 0
      objectReference: {fileID: 0}
    - target: {fileID: 3542691076355529126, guid: 8d28d16693b0f3944b892011ad2987aa,
        type: 3}
      propertyPath: m_AnchoredPosition.x
      value: 0
      objectReference: {fileID: 0}
    - target: {fileID: 3542691076355529126, guid: 8d28d16693b0f3944b892011ad2987aa,
        type: 3}
      propertyPath: m_AnchoredPosition.y
      value: 0
      objectReference: {fileID: 0}
    - target: {fileID: 3542691076355529126, guid: 8d28d16693b0f3944b892011ad2987aa,
        type: 3}
      propertyPath: m_SizeDelta.x
      value: 0
      objectReference: {fileID: 0}
    - target: {fileID: 3542691076355529126, guid: 8d28d16693b0f3944b892011ad2987aa,
        type: 3}
      propertyPath: m_SizeDelta.y
      value: 0
      objectReference: {fileID: 0}
    - target: {fileID: 3542691076355529126, guid: 8d28d16693b0f3944b892011ad2987aa,
        type: 3}
      propertyPath: m_AnchorMin.x
      value: 0
      objectReference: {fileID: 0}
    - target: {fileID: 3542691076355529126, guid: 8d28d16693b0f3944b892011ad2987aa,
        type: 3}
      propertyPath: m_AnchorMin.y
      value: 0
      objectReference: {fileID: 0}
    - target: {fileID: 3542691076355529126, guid: 8d28d16693b0f3944b892011ad2987aa,
        type: 3}
      propertyPath: m_AnchorMax.x
      value: 0
      objectReference: {fileID: 0}
    - target: {fileID: 3542691076355529126, guid: 8d28d16693b0f3944b892011ad2987aa,
        type: 3}
      propertyPath: m_AnchorMax.y
      value: 0
      objectReference: {fileID: 0}
    - target: {fileID: 3542691076355529126, guid: 8d28d16693b0f3944b892011ad2987aa,
        type: 3}
      propertyPath: m_Pivot.x
      value: 0
      objectReference: {fileID: 0}
    - target: {fileID: 3542691076355529126, guid: 8d28d16693b0f3944b892011ad2987aa,
        type: 3}
      propertyPath: m_Pivot.y
      value: 0
      objectReference: {fileID: 0}
    m_RemovedComponents: []
  m_SourcePrefab: {fileID: 100100000, guid: 8d28d16693b0f3944b892011ad2987aa, type: 3}
--- !u!1001 &291143712
PrefabInstance:
  m_ObjectHideFlags: 0
  serializedVersion: 2
  m_Modification:
    m_TransformParent: {fileID: 0}
    m_Modifications:
    - target: {fileID: 6301806057469905422, guid: fbd5b9102dd963a47a4921d98f5017b8,
        type: 3}
      propertyPath: m_LocalPosition.x
      value: 0
      objectReference: {fileID: 0}
    - target: {fileID: 6301806057469905422, guid: fbd5b9102dd963a47a4921d98f5017b8,
        type: 3}
      propertyPath: m_LocalPosition.y
      value: 0
      objectReference: {fileID: 0}
    - target: {fileID: 6301806057469905422, guid: fbd5b9102dd963a47a4921d98f5017b8,
        type: 3}
      propertyPath: m_LocalPosition.z
      value: -10
      objectReference: {fileID: 0}
    - target: {fileID: 6301806057469905422, guid: fbd5b9102dd963a47a4921d98f5017b8,
        type: 3}
      propertyPath: m_LocalRotation.x
      value: 0
      objectReference: {fileID: 0}
    - target: {fileID: 6301806057469905422, guid: fbd5b9102dd963a47a4921d98f5017b8,
        type: 3}
      propertyPath: m_LocalRotation.y
      value: 0
      objectReference: {fileID: 0}
    - target: {fileID: 6301806057469905422, guid: fbd5b9102dd963a47a4921d98f5017b8,
        type: 3}
      propertyPath: m_LocalRotation.z
      value: 0
      objectReference: {fileID: 0}
    - target: {fileID: 6301806057469905422, guid: fbd5b9102dd963a47a4921d98f5017b8,
        type: 3}
      propertyPath: m_LocalRotation.w
      value: 1
      objectReference: {fileID: 0}
    - target: {fileID: 6301806057469905422, guid: fbd5b9102dd963a47a4921d98f5017b8,
        type: 3}
      propertyPath: m_RootOrder
      value: 1
      objectReference: {fileID: 0}
    - target: {fileID: 6301806057469905422, guid: fbd5b9102dd963a47a4921d98f5017b8,
        type: 3}
      propertyPath: m_LocalEulerAnglesHint.x
      value: 0
      objectReference: {fileID: 0}
    - target: {fileID: 6301806057469905422, guid: fbd5b9102dd963a47a4921d98f5017b8,
        type: 3}
      propertyPath: m_LocalEulerAnglesHint.y
      value: 0
      objectReference: {fileID: 0}
    - target: {fileID: 6301806057469905422, guid: fbd5b9102dd963a47a4921d98f5017b8,
        type: 3}
      propertyPath: m_LocalEulerAnglesHint.z
      value: 0
      objectReference: {fileID: 0}
    - target: {fileID: 6301806057469905650, guid: fbd5b9102dd963a47a4921d98f5017b8,
        type: 3}
      propertyPath: m_Name
      value: Main Camera
      objectReference: {fileID: 0}
    m_RemovedComponents: []
  m_SourcePrefab: {fileID: 100100000, guid: fbd5b9102dd963a47a4921d98f5017b8, type: 3}
--- !u!1001 &377874880
PrefabInstance:
  m_ObjectHideFlags: 0
  serializedVersion: 2
  m_Modification:
    m_TransformParent: {fileID: 0}
    m_Modifications:
    - target: {fileID: 4923248062841547494, guid: afb9f076f57939e418a68d84a90183b6,
        type: 3}
      propertyPath: m_Name
      value: Game Session
      objectReference: {fileID: 0}
    - target: {fileID: 4923248062841547496, guid: afb9f076f57939e418a68d84a90183b6,
        type: 3}
      propertyPath: m_LocalPosition.x
      value: 286.29977
      objectReference: {fileID: 0}
    - target: {fileID: 4923248062841547496, guid: afb9f076f57939e418a68d84a90183b6,
        type: 3}
      propertyPath: m_LocalPosition.y
      value: 279.21887
      objectReference: {fileID: 0}
    - target: {fileID: 4923248062841547496, guid: afb9f076f57939e418a68d84a90183b6,
        type: 3}
      propertyPath: m_LocalPosition.z
      value: -11.589522
      objectReference: {fileID: 0}
    - target: {fileID: 4923248062841547496, guid: afb9f076f57939e418a68d84a90183b6,
        type: 3}
      propertyPath: m_LocalRotation.x
      value: 0
      objectReference: {fileID: 0}
    - target: {fileID: 4923248062841547496, guid: afb9f076f57939e418a68d84a90183b6,
        type: 3}
      propertyPath: m_LocalRotation.y
      value: 0
      objectReference: {fileID: 0}
    - target: {fileID: 4923248062841547496, guid: afb9f076f57939e418a68d84a90183b6,
        type: 3}
      propertyPath: m_LocalRotation.z
      value: 0
      objectReference: {fileID: 0}
    - target: {fileID: 4923248062841547496, guid: afb9f076f57939e418a68d84a90183b6,
        type: 3}
      propertyPath: m_LocalRotation.w
      value: 1
      objectReference: {fileID: 0}
    - target: {fileID: 4923248062841547496, guid: afb9f076f57939e418a68d84a90183b6,
        type: 3}
      propertyPath: m_RootOrder
      value: 8
      objectReference: {fileID: 0}
    - target: {fileID: 4923248062841547496, guid: afb9f076f57939e418a68d84a90183b6,
        type: 3}
      propertyPath: m_LocalEulerAnglesHint.x
      value: 0
      objectReference: {fileID: 0}
    - target: {fileID: 4923248062841547496, guid: afb9f076f57939e418a68d84a90183b6,
        type: 3}
      propertyPath: m_LocalEulerAnglesHint.y
      value: 0
      objectReference: {fileID: 0}
    - target: {fileID: 4923248062841547496, guid: afb9f076f57939e418a68d84a90183b6,
        type: 3}
      propertyPath: m_LocalEulerAnglesHint.z
      value: 0
      objectReference: {fileID: 0}
    m_RemovedComponents: []
  m_SourcePrefab: {fileID: 100100000, guid: afb9f076f57939e418a68d84a90183b6, type: 3}
--- !u!1 &916487562
GameObject:
  m_ObjectHideFlags: 0
  m_CorrespondingSourceObject: {fileID: 0}
  m_PrefabInstance: {fileID: 0}
  m_PrefabAsset: {fileID: 0}
  serializedVersion: 6
  m_Component:
  - component: {fileID: 916487565}
  - component: {fileID: 916487564}
  - component: {fileID: 916487563}
  m_Layer: 0
  m_Name: EventSystem
  m_TagString: Untagged
  m_Icon: {fileID: 0}
  m_NavMeshLayer: 0
  m_StaticEditorFlags: 0
  m_IsActive: 1
--- !u!114 &916487563
MonoBehaviour:
  m_ObjectHideFlags: 0
  m_CorrespondingSourceObject: {fileID: 0}
  m_PrefabInstance: {fileID: 0}
  m_PrefabAsset: {fileID: 0}
  m_GameObject: {fileID: 916487562}
  m_Enabled: 1
  m_EditorHideFlags: 0
  m_Script: {fileID: 1077351063, guid: f70555f144d8491a825f0804e09c671c, type: 3}
  m_Name: 
  m_EditorClassIdentifier: 
  m_HorizontalAxis: Horizontal
  m_VerticalAxis: Vertical
  m_SubmitButton: Submit
  m_CancelButton: Cancel
  m_InputActionsPerSecond: 10
  m_RepeatDelay: 0.5
  m_ForceModuleActive: 0
--- !u!114 &916487564
MonoBehaviour:
  m_ObjectHideFlags: 0
  m_CorrespondingSourceObject: {fileID: 0}
  m_PrefabInstance: {fileID: 0}
  m_PrefabAsset: {fileID: 0}
  m_GameObject: {fileID: 916487562}
  m_Enabled: 1
  m_EditorHideFlags: 0
  m_Script: {fileID: -619905303, guid: f70555f144d8491a825f0804e09c671c, type: 3}
  m_Name: 
  m_EditorClassIdentifier: 
  m_FirstSelected: {fileID: 0}
  m_sendNavigationEvents: 1
  m_DragThreshold: 10
--- !u!4 &916487565
Transform:
  m_ObjectHideFlags: 0
  m_CorrespondingSourceObject: {fileID: 0}
  m_PrefabInstance: {fileID: 0}
  m_PrefabAsset: {fileID: 0}
  m_GameObject: {fileID: 916487562}
  m_LocalRotation: {x: 0, y: 0, z: 0, w: 1}
  m_LocalPosition: {x: 0, y: 0, z: 0}
  m_LocalScale: {x: 1, y: 1, z: 1}
  m_Children: []
  m_Father: {fileID: 0}
  m_RootOrder: 2
  m_LocalEulerAnglesHint: {x: 0, y: 0, z: 0}
--- !u!1001 &1080758560
PrefabInstance:
  m_ObjectHideFlags: 0
  serializedVersion: 2
  m_Modification:
    m_TransformParent: {fileID: 0}
    m_Modifications:
    - target: {fileID: 720309847326113742, guid: 35a6aaffa7f209e4d93e9c5850964caf,
        type: 3}
      propertyPath: m_LocalPosition.x
      value: 0
      objectReference: {fileID: 0}
    - target: {fileID: 720309847326113742, guid: 35a6aaffa7f209e4d93e9c5850964caf,
        type: 3}
      propertyPath: m_LocalPosition.y
      value: 0
      objectReference: {fileID: 0}
    - target: {fileID: 720309847326113742, guid: 35a6aaffa7f209e4d93e9c5850964caf,
        type: 3}
      propertyPath: m_LocalPosition.z
      value: 0
      objectReference: {fileID: 0}
    - target: {fileID: 720309847326113742, guid: 35a6aaffa7f209e4d93e9c5850964caf,
        type: 3}
      propertyPath: m_LocalRotation.x
      value: 0
      objectReference: {fileID: 0}
    - target: {fileID: 720309847326113742, guid: 35a6aaffa7f209e4d93e9c5850964caf,
        type: 3}
      propertyPath: m_LocalRotation.y
      value: 0
      objectReference: {fileID: 0}
    - target: {fileID: 720309847326113742, guid: 35a6aaffa7f209e4d93e9c5850964caf,
        type: 3}
      propertyPath: m_LocalRotation.z
      value: 0
      objectReference: {fileID: 0}
    - target: {fileID: 720309847326113742, guid: 35a6aaffa7f209e4d93e9c5850964caf,
        type: 3}
      propertyPath: m_LocalRotation.w
      value: 1
      objectReference: {fileID: 0}
    - target: {fileID: 720309847326113742, guid: 35a6aaffa7f209e4d93e9c5850964caf,
        type: 3}
      propertyPath: m_RootOrder
      value: 7
      objectReference: {fileID: 0}
    - target: {fileID: 720309847326113742, guid: 35a6aaffa7f209e4d93e9c5850964caf,
        type: 3}
      propertyPath: m_LocalEulerAnglesHint.x
      value: 0
      objectReference: {fileID: 0}
    - target: {fileID: 720309847326113742, guid: 35a6aaffa7f209e4d93e9c5850964caf,
        type: 3}
      propertyPath: m_LocalEulerAnglesHint.y
      value: 0
      objectReference: {fileID: 0}
    - target: {fileID: 720309847326113742, guid: 35a6aaffa7f209e4d93e9c5850964caf,
        type: 3}
      propertyPath: m_LocalEulerAnglesHint.z
      value: 0
      objectReference: {fileID: 0}
    - target: {fileID: 720309847326113743, guid: 35a6aaffa7f209e4d93e9c5850964caf,
        type: 3}
      propertyPath: m_Name
      value: Music Player
      objectReference: {fileID: 0}
    m_RemovedComponents: []
  m_SourcePrefab: {fileID: 100100000, guid: 35a6aaffa7f209e4d93e9c5850964caf, type: 3}
--- !u!1001 &1363662520
PrefabInstance:
  m_ObjectHideFlags: 0
  serializedVersion: 2
  m_Modification:
    m_TransformParent: {fileID: 0}
    m_Modifications:
    - target: {fileID: 1637230712240945430, guid: 14504d6fcd1653a4cb5a615908c1f441,
        type: 3}
      propertyPath: m_Name
      value: Starfield Clos
      objectReference: {fileID: 0}
    - target: {fileID: 1637230712240945435, guid: 14504d6fcd1653a4cb5a615908c1f441,
        type: 3}
      propertyPath: m_LocalPosition.x
      value: -0.09
      objectReference: {fileID: 0}
    - target: {fileID: 1637230712240945435, guid: 14504d6fcd1653a4cb5a615908c1f441,
        type: 3}
      propertyPath: m_LocalPosition.y
      value: 6.04
      objectReference: {fileID: 0}
    - target: {fileID: 1637230712240945435, guid: 14504d6fcd1653a4cb5a615908c1f441,
        type: 3}
      propertyPath: m_LocalPosition.z
      value: -3.45
      objectReference: {fileID: 0}
    - target: {fileID: 1637230712240945435, guid: 14504d6fcd1653a4cb5a615908c1f441,
        type: 3}
      propertyPath: m_LocalRotation.x
      value: -0.0031903933
      objectReference: {fileID: 0}
    - target: {fileID: 1637230712240945435, guid: 14504d6fcd1653a4cb5a615908c1f441,
        type: 3}
      propertyPath: m_LocalRotation.y
      value: 0.70709956
      objectReference: {fileID: 0}
    - target: {fileID: 1637230712240945435, guid: 14504d6fcd1653a4cb5a615908c1f441,
        type: 3}
      propertyPath: m_LocalRotation.z
      value: -0.7070997
      objectReference: {fileID: 0}
    - target: {fileID: 1637230712240945435, guid: 14504d6fcd1653a4cb5a615908c1f441,
        type: 3}
      propertyPath: m_LocalRotation.w
      value: 0.0031904867
      objectReference: {fileID: 0}
    - target: {fileID: 1637230712240945435, guid: 14504d6fcd1653a4cb5a615908c1f441,
        type: 3}
      propertyPath: m_RootOrder
      value: 5
      objectReference: {fileID: 0}
    - target: {fileID: 1637230712240945435, guid: 14504d6fcd1653a4cb5a615908c1f441,
        type: 3}
      propertyPath: m_LocalEulerAnglesHint.x
      value: -269.483
      objectReference: {fileID: 0}
    - target: {fileID: 1637230712240945435, guid: 14504d6fcd1653a4cb5a615908c1f441,
        type: 3}
      propertyPath: m_LocalEulerAnglesHint.y
      value: -90.00101
      objectReference: {fileID: 0}
    - target: {fileID: 1637230712240945435, guid: 14504d6fcd1653a4cb5a615908c1f441,
        type: 3}
      propertyPath: m_LocalEulerAnglesHint.z
      value: 89.99899
      objectReference: {fileID: 0}
    m_RemovedComponents: []
  m_SourcePrefab: {fileID: 100100000, guid: 14504d6fcd1653a4cb5a615908c1f441, type: 3}
--- !u!1001 &1811342761
PrefabInstance:
  m_ObjectHideFlags: 0
  serializedVersion: 2
  m_Modification:
    m_TransformParent: {fileID: 0}
    m_Modifications:
    - target: {fileID: 506704886744758250, guid: 1ce2fab0e1e93654fb355c142b345273,
        type: 3}
      propertyPath: m_Name
      value: Starfield Far
      objectReference: {fileID: 0}
    - target: {fileID: 506704886744758255, guid: 1ce2fab0e1e93654fb355c142b345273,
        type: 3}
      propertyPath: m_LocalPosition.x
      value: -0.09
      objectReference: {fileID: 0}
    - target: {fileID: 506704886744758255, guid: 1ce2fab0e1e93654fb355c142b345273,
        type: 3}
      propertyPath: m_LocalPosition.y
      value: 6.04
      objectReference: {fileID: 0}
    - target: {fileID: 506704886744758255, guid: 1ce2fab0e1e93654fb355c142b345273,
        type: 3}
      propertyPath: m_LocalPosition.z
      value: -3.45
      objectReference: {fileID: 0}
    - target: {fileID: 506704886744758255, guid: 1ce2fab0e1e93654fb355c142b345273,
        type: 3}
      propertyPath: m_LocalRotation.x
      value: -0.0031903933
      objectReference: {fileID: 0}
    - target: {fileID: 506704886744758255, guid: 1ce2fab0e1e93654fb355c142b345273,
        type: 3}
      propertyPath: m_LocalRotation.y
      value: 0.70709956
      objectReference: {fileID: 0}
    - target: {fileID: 506704886744758255, guid: 1ce2fab0e1e93654fb355c142b345273,
        type: 3}
      propertyPath: m_LocalRotation.z
      value: -0.7070997
      objectReference: {fileID: 0}
    - target: {fileID: 506704886744758255, guid: 1ce2fab0e1e93654fb355c142b345273,
        type: 3}
      propertyPath: m_LocalRotation.w
      value: 0.0031904867
      objectReference: {fileID: 0}
    - target: {fileID: 506704886744758255, guid: 1ce2fab0e1e93654fb355c142b345273,
        type: 3}
      propertyPath: m_RootOrder
      value: 6
      objectReference: {fileID: 0}
    - target: {fileID: 506704886744758255, guid: 1ce2fab0e1e93654fb355c142b345273,
        type: 3}
      propertyPath: m_LocalEulerAnglesHint.x
      value: -269.483
      objectReference: {fileID: 0}
    - target: {fileID: 506704886744758255, guid: 1ce2fab0e1e93654fb355c142b345273,
        type: 3}
      propertyPath: m_LocalEulerAnglesHint.y
      value: -90.00101
      objectReference: {fileID: 0}
    - target: {fileID: 506704886744758255, guid: 1ce2fab0e1e93654fb355c142b345273,
        type: 3}
      propertyPath: m_LocalEulerAnglesHint.z
      value: 89.99899
      objectReference: {fileID: 0}
    m_RemovedComponents: []
  m_SourcePrefab: {fileID: 100100000, guid: 1ce2fab0e1e93654fb355c142b345273, type: 3}
--- !u!1001 &1825975767
PrefabInstance:
  m_ObjectHideFlags: 0
  serializedVersion: 2
  m_Modification:
    m_TransformParent: {fileID: 0}
    m_Modifications:
    - target: {fileID: 188141877895422584, guid: 985884e9b1ea5d34e8f05166381a7a93,
        type: 3}
      propertyPath: m_LocalPosition.x
      value: 0.121
      objectReference: {fileID: 0}
    - target: {fileID: 188141877895422584, guid: 985884e9b1ea5d34e8f05166381a7a93,
        type: 3}
      propertyPath: m_LocalPosition.y
      value: -0
      objectReference: {fileID: 0}
    - target: {fileID: 188141877895422584, guid: 985884e9b1ea5d34e8f05166381a7a93,
        type: 3}
      propertyPath: m_LocalPosition.z
      value: 0
      objectReference: {fileID: 0}
    - target: {fileID: 188141877895422584, guid: 985884e9b1ea5d34e8f05166381a7a93,
        type: 3}
      propertyPath: m_LocalRotation.x
      value: 0
      objectReference: {fileID: 0}
    - target: {fileID: 188141877895422584, guid: 985884e9b1ea5d34e8f05166381a7a93,
        type: 3}
      propertyPath: m_LocalRotation.y
      value: 0
      objectReference: {fileID: 0}
    - target: {fileID: 188141877895422584, guid: 985884e9b1ea5d34e8f05166381a7a93,
        type: 3}
      propertyPath: m_LocalRotation.z
      value: 0
      objectReference: {fileID: 0}
    - target: {fileID: 188141877895422584, guid: 985884e9b1ea5d34e8f05166381a7a93,
        type: 3}
      propertyPath: m_LocalRotation.w
      value: 1
      objectReference: {fileID: 0}
    - target: {fileID: 188141877895422584, guid: 985884e9b1ea5d34e8f05166381a7a93,
        type: 3}
      propertyPath: m_RootOrder
      value: 4
      objectReference: {fileID: 0}
    - target: {fileID: 188141877895422584, guid: 985884e9b1ea5d34e8f05166381a7a93,
        type: 3}
      propertyPath: m_LocalEulerAnglesHint.x
      value: 0
      objectReference: {fileID: 0}
    - target: {fileID: 188141877895422584, guid: 985884e9b1ea5d34e8f05166381a7a93,
        type: 3}
      propertyPath: m_LocalEulerAnglesHint.y
      value: 0
      objectReference: {fileID: 0}
    - target: {fileID: 188141877895422584, guid: 985884e9b1ea5d34e8f05166381a7a93,
        type: 3}
      propertyPath: m_LocalEulerAnglesHint.z
      value: 0
      objectReference: {fileID: 0}
    - target: {fileID: 8597592725952949369, guid: 985884e9b1ea5d34e8f05166381a7a93,
        type: 3}
      propertyPath: m_Name
      value: Background
      objectReference: {fileID: 0}
    m_RemovedComponents: []
  m_SourcePrefab: {fileID: 100100000, guid: 985884e9b1ea5d34e8f05166381a7a93, type: 3}
--- !u!1001 &2599537626504459800
PrefabInstance:
  m_ObjectHideFlags: 0
  serializedVersion: 2
  m_Modification:
    m_TransformParent: {fileID: 0}
    m_Modifications:
    - target: {fileID: 8650845501561235527, guid: 4baa3f9d286126444be3556192758417,
        type: 3}
      propertyPath: m_LocalPosition.x
      value: 0.99385524
      objectReference: {fileID: 0}
    - target: {fileID: 8650845501561235527, guid: 4baa3f9d286126444be3556192758417,
        type: 3}
      propertyPath: m_LocalPosition.y
      value: 0.39538532
      objectReference: {fileID: 0}
    - target: {fileID: 8650845501561235527, guid: 4baa3f9d286126444be3556192758417,
        type: 3}
      propertyPath: m_LocalPosition.z
      value: -3.4123974
      objectReference: {fileID: 0}
    - target: {fileID: 8650845501561235527, guid: 4baa3f9d286126444be3556192758417,
        type: 3}
      propertyPath: m_LocalRotation.x
      value: 0
      objectReference: {fileID: 0}
    - target: {fileID: 8650845501561235527, guid: 4baa3f9d286126444be3556192758417,
        type: 3}
      propertyPath: m_LocalRotation.y
      value: 0
      objectReference: {fileID: 0}
    - target: {fileID: 8650845501561235527, guid: 4baa3f9d286126444be3556192758417,
        type: 3}
      propertyPath: m_LocalRotation.z
      value: 0
      objectReference: {fileID: 0}
    - target: {fileID: 8650845501561235527, guid: 4baa3f9d286126444be3556192758417,
        type: 3}
      propertyPath: m_LocalRotation.w
      value: 1
      objectReference: {fileID: 0}
    - target: {fileID: 8650845501561235527, guid: 4baa3f9d286126444be3556192758417,
        type: 3}
      propertyPath: m_RootOrder
      value: 2
      objectReference: {fileID: 0}
    - target: {fileID: 8650845501561235527, guid: 4baa3f9d286126444be3556192758417,
        type: 3}
      propertyPath: m_LocalEulerAnglesHint.x
      value: 0
      objectReference: {fileID: 0}
    - target: {fileID: 8650845501561235527, guid: 4baa3f9d286126444be3556192758417,
        type: 3}
      propertyPath: m_LocalEulerAnglesHint.y
      value: 0
      objectReference: {fileID: 0}
    - target: {fileID: 8650845501561235527, guid: 4baa3f9d286126444be3556192758417,
        type: 3}
      propertyPath: m_LocalEulerAnglesHint.z
      value: 0
      objectReference: {fileID: 0}
    - target: {fileID: 8650845501561235529, guid: 4baa3f9d286126444be3556192758417,
        type: 3}
      propertyPath: m_Name
      value: Level
      objectReference: {fileID: 0}
    m_RemovedComponents: []
  m_SourcePrefab: {fileID: 100100000, guid: 4baa3f9d286126444be3556192758417, type: 3}
